
{

    "version": "1.0.0-*",
    "buildOptions": {
        "debugType": "portable",
        "emitEntryPoint": true
    },
    "dependencies":{},
    "frameworks": {
        "netcoreapp1.1": {
            "dependencies": {
                "Microsoft.NETCore.App": {
                    "version": "1.1.0"
                }
             }
         }
    },
    "runtimes": {
        "win10-x64": {},
        "osx.10.10-x64": {},
        "ubuntu.14.04-x64": {}
    }
}

